INDEX VERSION 1.4+/home/diego/eclipse-workspace/.metadata/.plugins/org.eclipse.wst.jsdt.core/indexes
3879082542.index
1142405188.index
1054212695.index
3715640620.index
1569298367.index
4085214741.index
817562452.index
1241859773.index
861803343.index
